C:\Users\tom.penard\GoodFood-Back-end\src\main\java\io\swagger\model\CustomerRGPD.java
C:\Users\tom.penard\GoodFood-Back-end\src\main\java\io\swagger\model\Address.java
C:\Users\tom.penard\GoodFood-Back-end\src\main\java\io\swagger\api\ApiOriginFilter.java
C:\Users\tom.penard\GoodFood-Back-end\src\main\java\io\swagger\configuration\WebSecurityConfig.java
C:\Users\tom.penard\GoodFood-Back-end\src\main\java\io\swagger\api\ComplaintApi.java
C:\Users\tom.penard\GoodFood-Back-end\src\main\java\io\swagger\api\IngredientApiController.java
C:\Users\tom.penard\GoodFood-Back-end\src\main\java\io\swagger\configuration\logoutSucessHandler.java
C:\Users\tom.penard\GoodFood-Back-end\src\main\java\io\swagger\api\RecipeApi.java
C:\Users\tom.penard\GoodFood-Back-end\src\main\java\io\swagger\model\CustomerInformation.java
C:\Users\tom.penard\GoodFood-Back-end\src\main\java\io\swagger\model\Purchase.java
C:\Users\tom.penard\GoodFood-Back-end\src\main\java\io\swagger\buisness\Interfaces\ICustomerService.java
C:\Users\tom.penard\GoodFood-Back-end\src\main\java\io\swagger\filter\JWTLoginFilter.java
C:\Users\tom.penard\GoodFood-Back-end\src\main\java\io\swagger\buisness\types\CellProduct.java
C:\Users\tom.penard\GoodFood-Back-end\src\main\java\io\swagger\model\Complaint.java
C:\Users\tom.penard\GoodFood-Back-end\src\main\java\io\swagger\model\Permission.java
C:\Users\tom.penard\GoodFood-Back-end\src\main\java\io\swagger\api\AddressApi.java
C:\Users\tom.penard\GoodFood-Back-end\src\main\java\io\swagger\api\OrderApi.java
C:\Users\tom.penard\GoodFood-Back-end\src\main\java\io\swagger\filter\JWTAuthenticationFilter.java
C:\Users\tom.penard\GoodFood-Back-end\src\main\java\io\swagger\api\ApiException.java
C:\Users\tom.penard\GoodFood-Back-end\src\main\java\io\swagger\api\IngredientApi.java
C:\Users\tom.penard\GoodFood-Back-end\src\main\java\io\swagger\configuration\SwaggerDocumentationConfig.java
C:\Users\tom.penard\GoodFood-Back-end\src\main\java\io\swagger\api\ApiResponseMessage.java
C:\Users\tom.penard\GoodFood-Back-end\src\main\java\io\swagger\configuration\JacksonConfiguration.java
C:\Users\tom.penard\GoodFood-Back-end\src\main\java\io\swagger\model\Restaurant.java
C:\Users\tom.penard\GoodFood-Back-end\src\main\java\io\swagger\buisness\services\impl\TokenAuthenticationService.java
C:\Users\tom.penard\GoodFood-Back-end\src\main\java\io\swagger\api\CustomerApiController.java
C:\Users\tom.penard\GoodFood-Back-end\src\main\java\io\swagger\api\DiscountApi.java
C:\Users\tom.penard\GoodFood-Back-end\src\main\java\io\swagger\api\PurchaseApiController.java
C:\Users\tom.penard\GoodFood-Back-end\src\main\java\io\swagger\api\SupplierApi.java
C:\Users\tom.penard\GoodFood-Back-end\src\main\java\io\swagger\buisness\types\StoreProduct.java
C:\Users\tom.penard\GoodFood-Back-end\src\main\java\io\swagger\api\ComplaintApiController.java
C:\Users\tom.penard\GoodFood-Back-end\src\main\java\io\swagger\myMongoDB.java
C:\Users\tom.penard\GoodFood-Back-end\src\main\java\io\swagger\api\FeedbackApi.java
C:\Users\tom.penard\GoodFood-Back-end\src\main\java\io\swagger\model\PurchaseDetail.java
C:\Users\tom.penard\GoodFood-Back-end\src\main\java\io\swagger\model\Recipe.java
C:\Users\tom.penard\GoodFood-Back-end\src\main\java\io\swagger\apiImplement\CustomerApiImpl.java
C:\Users\tom.penard\GoodFood-Back-end\src\main\java\io\swagger\buisness\services\impl\CustomerService.java
C:\Users\tom.penard\GoodFood-Back-end\src\main\java\io\swagger\buisness\types\ObjectIdSerializer2.java
C:\Users\tom.penard\GoodFood-Back-end\src\main\java\io\swagger\api\AdminApi.java
C:\Users\tom.penard\GoodFood-Back-end\src\main\java\io\swagger\buisness\Interfaces\IRestaurantService.java
C:\Users\tom.penard\GoodFood-Back-end\src\main\java\io\swagger\buisness\services\impl\IngredientService.java
C:\Users\tom.penard\GoodFood-Back-end\src\main\java\io\swagger\api\OrderApiController.java
C:\Users\tom.penard\GoodFood-Back-end\src\main\java\io\swagger\model\ModelApiResponse.java
C:\Users\tom.penard\GoodFood-Back-end\src\main\java\io\swagger\api\NotFoundException.java
C:\Users\tom.penard\GoodFood-Back-end\src\main\java\io\swagger\buisness\services\impl\AddressService.java
C:\Users\tom.penard\GoodFood-Back-end\src\main\java\io\swagger\configuration\LocalDateTimeConverter.java
C:\Users\tom.penard\GoodFood-Back-end\src\main\java\io\swagger\buisness\Interfaces\IIngredientService.java
C:\Users\tom.penard\GoodFood-Back-end\src\main\java\io\swagger\model\Feedback.java
C:\Users\tom.penard\GoodFood-Back-end\src\main\java\io\swagger\buisness\Interfaces\IRepo.java
C:\Users\tom.penard\GoodFood-Back-end\src\main\java\io\swagger\configuration\LocalDateConverter.java
C:\Users\tom.penard\GoodFood-Back-end\src\main\java\io\swagger\model\Discount.java
C:\Users\tom.penard\GoodFood-Back-end\src\main\java\io\swagger\api\CustomerApi.java
C:\Users\tom.penard\GoodFood-Back-end\src\main\java\io\swagger\api\FeedbackApiController.java
C:\Users\tom.penard\GoodFood-Back-end\src\main\java\io\swagger\buisness\services\impl\RestaurantService.java
C:\Users\tom.penard\GoodFood-Back-end\src\main\java\io\swagger\api\AdminApiController.java
C:\Users\tom.penard\GoodFood-Back-end\src\main\java\io\swagger\RFC3339DateFormat.java
C:\Users\tom.penard\GoodFood-Back-end\src\main\java\io\swagger\api\RestaurantApi.java
C:\Users\tom.penard\GoodFood-Back-end\src\main\java\io\swagger\buisness\Interfaces\IRecipeService.java
C:\Users\tom.penard\GoodFood-Back-end\src\main\java\io\swagger\api\AddressApiController.java
C:\Users\tom.penard\GoodFood-Back-end\src\main\java\io\swagger\model\Supplier.java
C:\Users\tom.penard\GoodFood-Back-end\src\main\java\io\swagger\Utils\ItemToDocument.java
C:\Users\tom.penard\GoodFood-Back-end\src\main\java\io\swagger\api\RestaurantApiController.java
C:\Users\tom.penard\GoodFood-Back-end\src\main\java\io\swagger\apiImplement\ingredientApiImpl.java
C:\Users\tom.penard\GoodFood-Back-end\src\main\java\io\swagger\model\Delivery.java
C:\Users\tom.penard\GoodFood-Back-end\src\main\java\io\swagger\api\PurchaseApi.java
C:\Users\tom.penard\GoodFood-Back-end\src\main\java\io\swagger\api\RecipeApiController.java
C:\Users\tom.penard\GoodFood-Back-end\src\main\java\io\swagger\api\DiscountApiController.java
C:\Users\tom.penard\GoodFood-Back-end\src\main\java\io\swagger\apiImplement\RestaurantAPIImpl.java
C:\Users\tom.penard\GoodFood-Back-end\src\main\java\io\swagger\buisness\Interfaces\IAdminService.java
C:\Users\tom.penard\GoodFood-Back-end\src\main\java\io\swagger\buisness\services\impl\RecipeService.java
C:\Users\tom.penard\GoodFood-Back-end\src\main\java\io\swagger\model\Admin.java
C:\Users\tom.penard\GoodFood-Back-end\src\main\java\io\swagger\api\SupplierApiController.java
C:\Users\tom.penard\GoodFood-Back-end\src\main\java\io\swagger\Swagger2SpringBoot.java
C:\Users\tom.penard\GoodFood-Back-end\src\main\java\io\swagger\buisness\types\Person.java
C:\Users\tom.penard\GoodFood-Back-end\src\main\java\io\swagger\repo\CustomerRepo.java
C:\Users\tom.penard\GoodFood-Back-end\src\main\java\io\swagger\model\Order.java
C:\Users\tom.penard\GoodFood-Back-end\src\main\java\io\swagger\buisness\Interfaces\IAddressService.java
C:\Users\tom.penard\GoodFood-Back-end\src\main\java\io\swagger\configuration\CustomInstantDeserializer.java
C:\Users\tom.penard\GoodFood-Back-end\src\main\java\io\swagger\apiImplement\AddressApiImpl.java
C:\Users\tom.penard\GoodFood-Back-end\src\main\java\io\swagger\model\OrderDetail.java
C:\Users\tom.penard\GoodFood-Back-end\src\main\java\io\swagger\buisness\Interfaces\IService.java
C:\Users\tom.penard\GoodFood-Back-end\src\main\java\io\swagger\configuration\HomeController.java
C:\Users\tom.penard\GoodFood-Back-end\src\main\java\io\swagger\buisness\services\impl\CryptoService.java
C:\Users\tom.penard\GoodFood-Back-end\src\main\java\io\swagger\buisness\Interfaces\ABaseRepo.java
C:\Users\tom.penard\GoodFood-Back-end\src\main\java\io\swagger\apiImplement\RecipeApiImpl.java
C:\Users\tom.penard\GoodFood-Back-end\src\main\java\io\swagger\model\Ingredient.java
C:\Users\tom.penard\GoodFood-Back-end\src\main\java\io\swagger\model\Customer.java
